The Landscape of Renal Replacement Therapy in Nigeria | 2022 - 2023
…
# A tibble: 1 × 2
  State pts_per_state
  <chr>         <int>
1 FCT             937

# Only FCT is not named in the same way

# So we will rename FCT in the pts_geog_distr df
pts_geog_distr <- pts_geog_distr %>% 
  mutate(State = case_when(State == 'FCT' ~ 'Federal Capital Territory',
                           TRUE ~ State)
         )
pts_geog_distr

# A tibble: 25 × 2
   State                     pts_per_state
   <chr>                             <int>
 1 Abia                                116
 2 Akwa Ibom                           201
 3 Borno                                86
 4 Cross River                         135
 5 Delta                                84
 6 Ebonyi                               79
 7 Ekiti                               103
 8 Enugu                               275
 9 Federal Capital Territory           937
10 Imo                                  14
# ℹ 15 more rows
…
